78 34 0.627 2.29412 34
279 291 0.95 1.66667 9
613 115 0.861 5.33043 115
1417 1174 4.298 1.20698 1174
2742 1461 3.924 9.04762 21
11850 6927 20.193 7.14815 54
120029 30460 235.94 11.92 25
175691 39577 313.65 14.1445 775
6594 4941 13.931 2.76471 34
20573 14274 32.37 13 27
121251 16046 171.924 27.9474 114
175691 39577 293.527 13.5685 496
175691 39577 261.031 12.7337 1288
175691 39577 233.071 12.9436 887
175691 39577 229.542 12.5864 631
175691 39577 299.352 14.1445 775
